[gd_scene load_steps=3 format=2]

[ext_resource path="res://src/ChooseOption.gd" type="Script" id=1]
[ext_resource path="res://assets/ui_theme.tres" type="Theme" id=2]

[node name="ChooseOption" type="Control"]
anchor_right = 1.0
anchor_bottom = 1.0
margin_left = 355.0
theme = ExtResource( 2 )
script = ExtResource( 1 )
__meta__ = {
"_edit_use_anchors_": false
}

[node name="VBoxContainer" type="VBoxContainer" parent="."]
anchor_right = 1.0
anchor_bottom = 1.0
alignment = 1
__meta__ = {
"_edit_use_anchors_": false
}

[node name="Label" type="Label" parent="VBoxContainer"]
margin_top = 237.0
margin_right = 669.0
margin_bottom = 254.0
theme = ExtResource( 2 )
text = "Sabtumu akan dihabiskan dengan siapa?"
align = 1

[node name="VBoxContainer" type="VBoxContainer" parent="VBoxContainer"]
margin_top = 258.0
margin_right = 669.0
margin_bottom = 362.0

[node name="Option1" type="Button" parent="VBoxContainer/VBoxContainer"]
margin_right = 669.0
margin_bottom = 23.0
text = "Amelia"

[node name="Option2" type="Button" parent="VBoxContainer/VBoxContainer"]
margin_top = 27.0
margin_right = 669.0
margin_bottom = 50.0
text = "(Tugas dari) Pak Jefri"

[node name="Option3" type="Button" parent="VBoxContainer/VBoxContainer"]
margin_top = 54.0
margin_right = 669.0
margin_bottom = 77.0
text = "Boim"

[node name="Option4" type="Button" parent="VBoxContainer/VBoxContainer"]
margin_top = 81.0
margin_right = 669.0
margin_bottom = 104.0
text = "Sendirian"
